{
    "timestamp": 1528273762011,
    "infocode": "VP000000",
    "msgparam": null,
    "data": {
        "resultList": [{
            "iid": "1",
            "idpttype": "0",
            "scode": "D000001",
            "sname": "北京维普时代软件有限公"
        }, {
            "iid": "2",
            "idpttype": "0",
            "scode": "D000002",
            "sname": "研发部"
        }, {
            "iid": "3",
            "idpttype": "0",
            "scode": "D000003",
            "sname": "交付部"
        }, {
            "iid": "4",
            "idpttype": "0",
            "scode": "D000003",
            "sname": "交付部"
        }, {
            "iid": "5",
            "idpttype": "0",
            "scode": "D000003",
            "sname": "交付部"
        }, {
            "iid": "6",
            "idpttype": "0",
            "scode": "D000003",
            "sname": "交付部"
        }, {
            "iid": "7",
            "idpttype": "0",
            "scode": "D000003",
            "sname": "交付部"
        }, {
            "iid": "8",
            "idpttype": "0",
            "scode": "D000003",
            "sname": "交付部"
        }, {
            "iid": "9",
            "idpttype": "0",
            "scode": "D000003",
            "sname": "交付部"
        }, {
            "iid": "10",
            "idpttype": "0",
            "scode": "D000003",
            "sname": "交付部"
        }],
        "numPerPage": 10,
        "totalRows": 12,
        "totalPages": 2,
        "currentPage": 1
    },
    "msg": "VP000000"
}