{
    "data": {
        "resultList": [{
                "iid": "1",
                "name": "adminisstator",
                "children": [
                    {
                        "iid": "1-1",
                        "state": "分配工时",
                        "data1": 0,
                        "data2": 0,
                        "data3": 0,
                        "data4": 0,
                        "data5": 0,
                        "data6": 0,
                        "data7": 0
                    },
                    {
                        "iid": "1-2",
                        "state": "实际投入工时",
                        "data1": 0,
                        "data2": 0,
                        "data3": 0,
                        "data4": 0,
                        "data5": 0,
                        "data6": 0,
                        "data7": 0
                    }, 
                    {
                        "iid": "1-3",
                        "state": "过度分配"
                    },
                    {
                        "iid": "1-4",
                        "state": "负载率",
                        "data1": "0%",
                        "data2": "0%",
                        "data3": "0%",
                        "data4": "0%",
                        "data5": "0%",
                        "data6": "0%",
                        "data7": "0%"
                    }
                ]
            }, {
                "iid": 2,
                "name": "user",
                "children": [
                    {
                        "iid": "2-1",
                        "state": "分配工时",
                        "data1": 0,
                        "data2": 0,
                        "data3": 0,
                        "data4": 0,
                        "data5": 0,
                        "data6": 0,
                        "data7": 0
                    }, {
                        "iid": "2-2",
                        "state": "实际投入工时",
                        "data1": 0,
                        "data2": 0,
                        "data3": 0,
                        "data4": 0,
                        "data5": 0,
                        "data6": 0,
                        "data7": 0
                    }, {
                        "iid": "2-3",
                        "state": "过度分配"
                    }, {
                        "iid": "2-4",
                        "state": "负载率",
                        "data1": "0%",
                        "data2": "0%",
                        "data3": "0%",
                        "data4": "0%",
                        "data5": "0%",
                        "data6": "0%",
                        "data7": "0%"
                    }
                ]
            }, {
                "iid": 3,
                "name": "丁亚熊",
                "children": []
            }, {
                "iid": 4,
                "name": "万丹红",
                "type": "高级",
                "children": []
            }, {
                "iid": 5,
                "name": "付世昌",
                "type": "初级",
                "children": []
            }
        ],
        "numPerPage": 10,
        "totalRows": 12,
        "totalPages": 2,
        "currentPage": 1
    },
    "status": "success",
    "infocode": "VP000000"
}